%!PS-Adobe-3.0 EPSF-3.0
%%Creator: (MATLAB, The Mathworks, Inc. Version 9.7.0.1261785 \(R2019b\) Update 3. Operating System: Windows 10)
%%Title: ./M0.eps
%%CreationDate: 2020-01-20T16:10:32
%%Pages: (atend)
%%BoundingBox:    36    20   381   293
%%LanguageLevel: 3
%%EndComments
%%BeginProlog
%%BeginResource: procset (Apache XML Graphics Std ProcSet) 1.2 0
%%Version: 1.2 0
%%Copyright: (Copyright 2001-2003,2010 The Apache Software Foundation. License terms: http://www.apache.org/licenses/LICENSE-2.0)
/bd{bind def}bind def
/ld{load def}bd
/GR/grestore ld
/GS/gsave ld
/RM/rmoveto ld
/C/curveto ld
/t/show ld
/L/lineto ld
/ML/setmiterlimit ld
/CT/concat ld
/f/fill ld
/N/newpath ld
/S/stroke ld
/CC/setcmykcolor ld
/A/ashow ld
/cp/closepath ld
/RC/setrgbcolor ld
/LJ/setlinejoin ld
/GC/setgray ld
/LW/setlinewidth ld
/M/moveto ld
/re {4 2 roll M
1 index 0 rlineto
0 exch rlineto
neg 0 rlineto
cp } bd
/_ctm matrix def
/_tm matrix def
/BT { _ctm currentmatrix pop matrix _tm copy pop 0 0 moveto } bd
/ET { _ctm setmatrix } bd
/iTm { _ctm setmatrix _tm concat } bd
/Tm { _tm astore pop iTm 0 0 moveto } bd
/ux 0.0 def
/uy 0.0 def
/F {
  /Tp exch def
  /Tf exch def
  Tf findfont Tp scalefont setfont
  /cf Tf def  /cs Tp def
} bd
/ULS {currentpoint /uy exch def /ux exch def} bd
/ULE {
  /Tcx currentpoint pop def
  gsave
  newpath
  cf findfont cs scalefont dup
  /FontMatrix get 0 get /Ts exch def /FontInfo get dup
  /UnderlinePosition get Ts mul /To exch def
  /UnderlineThickness get Ts mul /Tt exch def
  ux uy To add moveto  Tcx uy To add lineto
  Tt setlinewidth stroke
  grestore
} bd
/OLE {
  /Tcx currentpoint pop def
  gsave
  newpath
  cf findfont cs scalefont dup
  /FontMatrix get 0 get /Ts exch def /FontInfo get dup
  /UnderlinePosition get Ts mul /To exch def
  /UnderlineThickness get Ts mul /Tt exch def
  ux uy To add cs add moveto Tcx uy To add cs add lineto
  Tt setlinewidth stroke
  grestore
} bd
/SOE {
  /Tcx currentpoint pop def
  gsave
  newpath
  cf findfont cs scalefont dup
  /FontMatrix get 0 get /Ts exch def /FontInfo get dup
  /UnderlinePosition get Ts mul /To exch def
  /UnderlineThickness get Ts mul /Tt exch def
  ux uy To add cs 10 mul 26 idiv add moveto Tcx uy To add cs 10 mul 26 idiv add lineto
  Tt setlinewidth stroke
  grestore
} bd
/QT {
/Y22 exch store
/X22 exch store
/Y21 exch store
/X21 exch store
currentpoint
/Y21 load 2 mul add 3 div exch
/X21 load 2 mul add 3 div exch
/X21 load 2 mul /X22 load add 3 div
/Y21 load 2 mul /Y22 load add 3 div
/X22 load /Y22 load curveto
} bd
/SSPD {
dup length /d exch dict def
{
/v exch def
/k exch def
currentpagedevice k known {
/cpdv currentpagedevice k get def
v cpdv ne {
/upd false def
/nullv v type /nulltype eq def
/nullcpdv cpdv type /nulltype eq def
nullv nullcpdv or
{
/upd true def
} {
/sametype v type cpdv type eq def
sametype {
v type /arraytype eq {
/vlen v length def
/cpdvlen cpdv length def
vlen cpdvlen eq {
0 1 vlen 1 sub {
/i exch def
/obj v i get def
/cpdobj cpdv i get def
obj cpdobj ne {
/upd true def
exit
} if
} for
} {
/upd true def
} ifelse
} {
v type /dicttype eq {
v {
/dv exch def
/dk exch def
/cpddv cpdv dk get def
dv cpddv ne {
/upd true def
exit
} if
} forall
} {
/upd true def
} ifelse
} ifelse
} if
} ifelse
upd true eq {
d k v put
} if
} if
} if
} forall
d length 0 gt {
d setpagedevice
} if
} bd
/RE { % /NewFontName [NewEncodingArray] /FontName RE -
  findfont dup length dict begin
  {
    1 index /FID ne
    {def} {pop pop} ifelse
  } forall
  /Encoding exch def
  /FontName 1 index def
  currentdict definefont pop
  end
} bind def
%%EndResource
%%BeginResource: procset (Apache XML Graphics EPS ProcSet) 1.0 0
%%Version: 1.0 0
%%Copyright: (Copyright 2002-2003 The Apache Software Foundation. License terms: http://www.apache.org/licenses/LICENSE-2.0)
/BeginEPSF { %def
/b4_Inc_state save def         % Save state for cleanup
/dict_count countdictstack def % Count objects on dict stack
/op_count count 1 sub def      % Count objects on operand stack
userdict begin                 % Push userdict on dict stack
/showpage { } def              % Redefine showpage, { } = null proc
0 setgray 0 setlinecap         % Prepare graphics state
1 setlinewidth 0 setlinejoin
10 setmiterlimit [ ] 0 setdash newpath
/languagelevel where           % If level not equal to 1 then
{pop languagelevel             % set strokeadjust and
1 ne                           % overprint to their defaults.
{false setstrokeadjust false setoverprint
} if
} if
} bd
/EndEPSF { %def
count op_count sub {pop} repeat            % Clean up stacks
countdictstack dict_count sub {end} repeat
b4_Inc_state restore
} bd
%%EndResource
%FOPBeginFontDict
%%IncludeResource: font Courier-Oblique
%%IncludeResource: font Courier-BoldOblique
%%IncludeResource: font Courier-Bold
%%IncludeResource: font ZapfDingbats
%%IncludeResource: font Symbol
%%IncludeResource: font Helvetica
%%IncludeResource: font Helvetica-Oblique
%%IncludeResource: font Helvetica-Bold
%%IncludeResource: font Helvetica-BoldOblique
%%IncludeResource: font Times-Roman
%%IncludeResource: font Times-Italic
%%IncludeResource: font Times-Bold
%%IncludeResource: font Times-BoldItalic
%%IncludeResource: font Courier
%FOPEndFontDict
%%BeginResource: encoding WinAnsiEncoding
/WinAnsiEncoding [
/.notdef /.notdef /.notdef /.notdef /.notdef
/.notdef /.notdef /.notdef /.notdef /.notdef
/.notdef /.notdef /.notdef /.notdef /.notdef
/.notdef /.notdef /.notdef /.notdef /.notdef
/.notdef /.notdef /.notdef /.notdef /.notdef
/.notdef /.notdef /.notdef /.notdef /.notdef
/.notdef /.notdef /space /exclam /quotedbl
/numbersign /dollar /percent /ampersand /quotesingle
/parenleft /parenright /asterisk /plus /comma
/hyphen /period /slash /zero /one
/two /three /four /five /six
/seven /eight /nine /colon /semicolon
/less /equal /greater /question /at
/A /B /C /D /E
/F /G /H /I /J
/K /L /M /N /O
/P /Q /R /S /T
/U /V /W /X /Y
/Z /bracketleft /backslash /bracketright /asciicircum
/underscore /quoteleft /a /b /c
/d /e /f /g /h
/i /j /k /l /m
/n /o /p /q /r
/s /t /u /v /w
/x /y /z /braceleft /bar
/braceright /asciitilde /bullet /Euro /bullet
/quotesinglbase /florin /quotedblbase /ellipsis /dagger
/daggerdbl /circumflex /perthousand /Scaron /guilsinglleft
/OE /bullet /Zcaron /bullet /bullet
/quoteleft /quoteright /quotedblleft /quotedblright /bullet
/endash /emdash /asciitilde /trademark /scaron
/guilsinglright /oe /bullet /zcaron /Ydieresis
/space /exclamdown /cent /sterling /currency
/yen /brokenbar /section /dieresis /copyright
/ordfeminine /guillemotleft /logicalnot /sfthyphen /registered
/macron /degree /plusminus /twosuperior /threesuperior
/acute /mu /paragraph /middot /cedilla
/onesuperior /ordmasculine /guillemotright /onequarter /onehalf
/threequarters /questiondown /Agrave /Aacute /Acircumflex
/Atilde /Adieresis /Aring /AE /Ccedilla
/Egrave /Eacute /Ecircumflex /Edieresis /Igrave
/Iacute /Icircumflex /Idieresis /Eth /Ntilde
/Ograve /Oacute /Ocircumflex /Otilde /Odieresis
/multiply /Oslash /Ugrave /Uacute /Ucircumflex
/Udieresis /Yacute /Thorn /germandbls /agrave
/aacute /acircumflex /atilde /adieresis /aring
/ae /ccedilla /egrave /eacute /ecircumflex
/edieresis /igrave /iacute /icircumflex /idieresis
/eth /ntilde /ograve /oacute /ocircumflex
/otilde /odieresis /divide /oslash /ugrave
/uacute /ucircumflex /udieresis /yacute /thorn
/ydieresis
] def
%%EndResource
%FOPBeginFontReencode
/Courier-Oblique findfont
dup length dict begin
  {1 index /FID ne {def} {pop pop} ifelse} forall
  /Encoding WinAnsiEncoding def
  currentdict
end
/Courier-Oblique exch definefont pop
/Courier-BoldOblique findfont
dup length dict begin
  {1 index /FID ne {def} {pop pop} ifelse} forall
  /Encoding WinAnsiEncoding def
  currentdict
end
/Courier-BoldOblique exch definefont pop
/Courier-Bold findfont
dup length dict begin
  {1 index /FID ne {def} {pop pop} ifelse} forall
  /Encoding WinAnsiEncoding def
  currentdict
end
/Courier-Bold exch definefont pop
/Helvetica findfont
dup length dict begin
  {1 index /FID ne {def} {pop pop} ifelse} forall
  /Encoding WinAnsiEncoding def
  currentdict
end
/Helvetica exch definefont pop
/Helvetica-Oblique findfont
dup length dict begin
  {1 index /FID ne {def} {pop pop} ifelse} forall
  /Encoding WinAnsiEncoding def
  currentdict
end
/Helvetica-Oblique exch definefont pop
/Helvetica-Bold findfont
dup length dict begin
  {1 index /FID ne {def} {pop pop} ifelse} forall
  /Encoding WinAnsiEncoding def
  currentdict
end
/Helvetica-Bold exch definefont pop
/Helvetica-BoldOblique findfont
dup length dict begin
  {1 index /FID ne {def} {pop pop} ifelse} forall
  /Encoding WinAnsiEncoding def
  currentdict
end
/Helvetica-BoldOblique exch definefont pop
/Times-Roman findfont
dup length dict begin
  {1 index /FID ne {def} {pop pop} ifelse} forall
  /Encoding WinAnsiEncoding def
  currentdict
end
/Times-Roman exch definefont pop
/Times-Italic findfont
dup length dict begin
  {1 index /FID ne {def} {pop pop} ifelse} forall
  /Encoding WinAnsiEncoding def
  currentdict
end
/Times-Italic exch definefont pop
/Times-Bold findfont
dup length dict begin
  {1 index /FID ne {def} {pop pop} ifelse} forall
  /Encoding WinAnsiEncoding def
  currentdict
end
/Times-Bold exch definefont pop
/Times-BoldItalic findfont
dup length dict begin
  {1 index /FID ne {def} {pop pop} ifelse} forall
  /Encoding WinAnsiEncoding def
  currentdict
end
/Times-BoldItalic exch definefont pop
/Courier findfont
dup length dict begin
  {1 index /FID ne {def} {pop pop} ifelse} forall
  /Encoding WinAnsiEncoding def
  currentdict
end
/Courier exch definefont pop
%FOPEndFontReencode
%%EndProlog
%%Page: 1 1
%%PageBoundingBox: 0 0 420 315
%%BeginPageSetup
[1 0 0 -1 0 315] CT
%%EndPageSetup
GS
[0.75 0 0 0.75 0 0] CT
1 GC
N
0 0 560 420 re
f
GR
GS
[0.75 0 0 0.75 0 0] CT
1 GC
N
0 0 560 420 re
f
GR
GS
[0.75 0 0 0.75 0 0] CT
1 GC
N
73 373.65 M
507 373.65 L
507 31.35 L
73 31.35 L
cp
f
GR
GS
[0.75 0 0 0.75 0 0] CT
0.149 GC
2 setlinecap
1 LJ
0.667 LW
N
73 373.65 M
507 373.65 L
S
GR
GS
[0.75 0 0 0.75 0 0] CT
0.149 GC
2 setlinecap
1 LJ
0.667 LW
N
73 31.35 M
507 31.35 L
S
GR
GS
[0.75 0 0 0.75 0 0] CT
0.149 GC
2 setlinecap
1 LJ
0.667 LW
N
88.647 373.65 M
88.647 369.31 L
S
GR
GS
[0.75 0 0 0.75 0 0] CT
0.149 GC
2 setlinecap
1 LJ
0.667 LW
N
155.765 373.65 M
155.765 369.31 L
S
GR
GS
[0.75 0 0 0.75 0 0] CT
0.149 GC
2 setlinecap
1 LJ
0.667 LW
N
222.882 373.65 M
222.882 369.31 L
S
GR
GS
[0.75 0 0 0.75 0 0] CT
0.149 GC
2 setlinecap
1 LJ
0.667 LW
N
290 373.65 M
290 369.31 L
S
GR
GS
[0.75 0 0 0.75 0 0] CT
0.149 GC
2 setlinecap
1 LJ
0.667 LW
N
357.118 373.65 M
357.118 369.31 L
S
GR
GS
[0.75 0 0 0.75 0 0] CT
0.149 GC
2 setlinecap
1 LJ
0.667 LW
N
424.235 373.65 M
424.235 369.31 L
S
GR
GS
[0.75 0 0 0.75 0 0] CT
0.149 GC
2 setlinecap
1 LJ
0.667 LW
N
491.353 373.65 M
491.353 369.31 L
S
GR
GS
[0.75 0 0 0.75 0 0] CT
0.149 GC
2 setlinecap
1 LJ
0.667 LW
N
88.647 31.35 M
88.647 35.69 L
S
GR
GS
[0.75 0 0 0.75 0 0] CT
0.149 GC
2 setlinecap
1 LJ
0.667 LW
N
155.765 31.35 M
155.765 35.69 L
S
GR
GS
[0.75 0 0 0.75 0 0] CT
0.149 GC
2 setlinecap
1 LJ
0.667 LW
N
222.882 31.35 M
222.882 35.69 L
S
GR
GS
[0.75 0 0 0.75 0 0] CT
0.149 GC
2 setlinecap
1 LJ
0.667 LW
N
290 31.35 M
290 35.69 L
S
GR
GS
[0.75 0 0 0.75 0 0] CT
0.149 GC
2 setlinecap
1 LJ
0.667 LW
N
357.118 31.35 M
357.118 35.69 L
S
GR
GS
[0.75 0 0 0.75 0 0] CT
0.149 GC
2 setlinecap
1 LJ
0.667 LW
N
424.235 31.35 M
424.235 35.69 L
S
GR
GS
[0.75 0 0 0.75 0 0] CT
0.149 GC
2 setlinecap
1 LJ
0.667 LW
N
491.353 31.35 M
491.353 35.69 L
S
GR
GS
[0.75 0 0 0.75 66.48529 284.2375] CT
0.149 GC
/Helvetica 13.333 F
GS
[1 0 0 1 0 0] CT
-10 14 moveto 
1 -1 scale
(-60) t 
GR
GR
GS
[0.75 0 0 0.75 116.82353 284.2375] CT
0.149 GC
/Helvetica 13.333 F
GS
[1 0 0 1 0 0] CT
-10 14 moveto 
1 -1 scale
(-40) t 
GR
GR
GS
[0.75 0 0 0.75 167.16177 284.2375] CT
0.149 GC
/Helvetica 13.333 F
GS
[1 0 0 1 0 0] CT
-10 14 moveto 
1 -1 scale
(-20) t 
GR
GR
GS
[0.75 0 0 0.75 217.5 284.2375] CT
0.149 GC
/Helvetica 13.333 F
GS
[1 0 0 1 0 0] CT
-4 14 moveto 
1 -1 scale
(0) t 
GR
GR
GS
[0.75 0 0 0.75 267.83823 284.2375] CT
0.149 GC
/Helvetica 13.333 F
GS
[1 0 0 1 0 0] CT
-7.5 14 moveto 
1 -1 scale
(20) t 
GR
GR
GS
[0.75 0 0 0.75 318.17647 284.2375] CT
0.149 GC
/Helvetica 13.333 F
GS
[1 0 0 1 0 0] CT
-7.5 14 moveto 
1 -1 scale
(40) t 
GR
GR
GS
[0.75 0 0 0.75 368.5147 284.2375] CT
0.149 GC
/Helvetica 13.333 F
GS
[1 0 0 1 0 0] CT
-7.5 14 moveto 
1 -1 scale
(60) t 
GR
GR
GS
[0.75 0 0 0.75 0 0] CT
0.149 GC
2 setlinecap
1 LJ
0.667 LW
N
73 373.65 M
73 31.35 L
S
GR
GS
[0.75 0 0 0.75 0 0] CT
0.149 GC
2 setlinecap
1 LJ
0.667 LW
N
507 373.65 M
507 31.35 L
S
GR
GS
[0.75 0 0 0.75 0 0] CT
0.149 GC
2 setlinecap
1 LJ
0.667 LW
N
73 370.294 M
77.34 370.294 L
S
GR
GS
[0.75 0 0 0.75 0 0] CT
0.149 GC
2 setlinecap
1 LJ
0.667 LW
N
73 336.735 M
77.34 336.735 L
S
GR
GS
[0.75 0 0 0.75 0 0] CT
0.149 GC
2 setlinecap
1 LJ
0.667 LW
N
73 303.176 M
77.34 303.176 L
S
GR
GS
[0.75 0 0 0.75 0 0] CT
0.149 GC
2 setlinecap
1 LJ
0.667 LW
N
73 269.618 M
77.34 269.618 L
S
GR
GS
[0.75 0 0 0.75 0 0] CT
0.149 GC
2 setlinecap
1 LJ
0.667 LW
N
73 236.059 M
77.34 236.059 L
S
GR
GS
[0.75 0 0 0.75 0 0] CT
0.149 GC
2 setlinecap
1 LJ
0.667 LW
N
73 202.5 M
77.34 202.5 L
S
GR
GS
[0.75 0 0 0.75 0 0] CT
0.149 GC
2 setlinecap
1 LJ
0.667 LW
N
73 168.941 M
77.34 168.941 L
S
GR
GS
[0.75 0 0 0.75 0 0] CT
0.149 GC
2 setlinecap
1 LJ
0.667 LW
N
73 135.382 M
77.34 135.382 L
S
GR
GS
[0.75 0 0 0.75 0 0] CT
0.149 GC
2 setlinecap
1 LJ
0.667 LW
N
73 101.824 M
77.34 101.824 L
S
GR
GS
[0.75 0 0 0.75 0 0] CT
0.149 GC
2 setlinecap
1 LJ
0.667 LW
N
73 68.265 M
77.34 68.265 L
S
GR
GS
[0.75 0 0 0.75 0 0] CT
0.149 GC
2 setlinecap
1 LJ
0.667 LW
N
73 34.706 M
77.34 34.706 L
S
GR
GS
[0.75 0 0 0.75 0 0] CT
0.149 GC
2 setlinecap
1 LJ
0.667 LW
N
507 370.294 M
502.66 370.294 L
S
GR
GS
[0.75 0 0 0.75 0 0] CT
0.149 GC
2 setlinecap
1 LJ
0.667 LW
N
507 336.735 M
502.66 336.735 L
S
GR
GS
[0.75 0 0 0.75 0 0] CT
0.149 GC
2 setlinecap
1 LJ
0.667 LW
N
507 303.176 M
502.66 303.176 L
S
GR
GS
[0.75 0 0 0.75 0 0] CT
0.149 GC
2 setlinecap
1 LJ
0.667 LW
N
507 269.618 M
502.66 269.618 L
S
GR
GS
[0.75 0 0 0.75 0 0] CT
0.149 GC
2 setlinecap
1 LJ
0.667 LW
N
507 236.059 M
502.66 236.059 L
S
GR
GS
[0.75 0 0 0.75 0 0] CT
0.149 GC
2 setlinecap
1 LJ
0.667 LW
N
507 202.5 M
502.66 202.5 L
S
GR
GS
[0.75 0 0 0.75 0 0] CT
0.149 GC
2 setlinecap
1 LJ
0.667 LW
N
507 168.941 M
502.66 168.941 L
S
GR
GS
[0.75 0 0 0.75 0 0] CT
0.149 GC
2 setlinecap
1 LJ
0.667 LW
N
507 135.382 M
502.66 135.382 L
S
GR
GS
[0.75 0 0 0.75 0 0] CT
0.149 GC
2 setlinecap
1 LJ
0.667 LW
N
507 101.824 M
502.66 101.824 L
S
GR
GS
[0.75 0 0 0.75 0 0] CT
0.149 GC
2 setlinecap
1 LJ
0.667 LW
N
507 68.265 M
502.66 68.265 L
S
GR
GS
[0.75 0 0 0.75 0 0] CT
0.149 GC
2 setlinecap
1 LJ
0.667 LW
N
507 34.706 M
502.66 34.706 L
S
GR
GS
[0.75 0 0 0.75 50.75 277.7206] CT
0.149 GC
/Helvetica 13.333 F
GS
[1 0 0 1 0 0] CT
-20 5.5 moveto 
1 -1 scale
(-50) t 
GR
GR
GS
[0.75 0 0 0.75 50.75 252.55147] CT
0.149 GC
/Helvetica 13.333 F
GS
[1 0 0 1 0 0] CT
-20 5.5 moveto 
1 -1 scale
(-40) t 
GR
GR
GS
[0.75 0 0 0.75 50.75 227.38236] CT
0.149 GC
/Helvetica 13.333 F
GS
[1 0 0 1 0 0] CT
-20 5.5 moveto 
1 -1 scale
(-30) t 
GR
GR
GS
[0.75 0 0 0.75 50.75 202.21323] CT
0.149 GC
/Helvetica 13.333 F
GS
[1 0 0 1 0 0] CT
-20 5.5 moveto 
1 -1 scale
(-20) t 
GR
GR
GS
[0.75 0 0 0.75 50.75 177.04412] CT
0.149 GC
/Helvetica 13.333 F
GS
[1 0 0 1 0 0] CT
-20 5.5 moveto 
1 -1 scale
(-10) t 
GR
GR
GS
[0.75 0 0 0.75 50.75 151.875] CT
0.149 GC
/Helvetica 13.333 F
GS
[1 0 0 1 0 0] CT
-8 5.5 moveto 
1 -1 scale
(0) t 
GR
GR
GS
[0.75 0 0 0.75 50.75 126.70588] CT
0.149 GC
/Helvetica 13.333 F
GS
[1 0 0 1 0 0] CT
-15 5.5 moveto 
1 -1 scale
(10) t 
GR
GR
GS
[0.75 0 0 0.75 50.75 101.53677] CT
0.149 GC
/Helvetica 13.333 F
GS
[1 0 0 1 0 0] CT
-15 5.5 moveto 
1 -1 scale
(20) t 
GR
GR
GS
[0.75 0 0 0.75 50.75 76.36765] CT
0.149 GC
/Helvetica 13.333 F
GS
[1 0 0 1 0 0] CT
-15 5.5 moveto 
1 -1 scale
(30) t 
GR
GR
GS
[0.75 0 0 0.75 50.75 51.19853] CT
0.149 GC
/Helvetica 13.333 F
GS
[1 0 0 1 0 0] CT
-15 5.5 moveto 
1 -1 scale
(40) t 
GR
GR
GS
[0.75 0 0 0.75 50.75 26.02941] CT
0.149 GC
/Helvetica 13.333 F
GS
[1 0 0 1 0 0] CT
-15 5.5 moveto 
1 -1 scale
(50) t 
GR
GR
GS
[0.75 0 0 0.75 217.5 151.875] CT
1 GC
N
1.333 0 M
1.333 0.736 0.736 1.333 0 1.333 C
-0.736 1.333 -1.333 0.736 -1.333 0 C
-1.333 -0.736 -0.736 -1.333 0 -1.333 C
0.736 -1.333 1.333 -0.736 1.333 0 C
cp
f
GR
GS
[0.75 0 0 0.75 89.1375 280.2375] CT
1 GC
N
/f-1057828618{1.333 0 M
1.333 0.736 0.736 1.333 0 1.333 C
-0.736 1.333 -1.333 0.736 -1.333 0 C
-1.333 -0.736 -0.736 -1.333 0 -1.333 C
0.736 -1.333 1.333 -0.736 1.333 0 C
cp}def
f-1057828618
f
GR
GS
[0.75 0 0 0.75 345.8625 23.5125] CT
1 GC
N
f-1057828618
f
GR
GS
[0.75 0 0 0.75 0 0] CT
1 LJ
0.667 LW
N
122.206 370.294 M
457.794 370.294 L
S
GR
GS
[0.75 0 0 0.75 0 0] CT
1 LJ
0.667 LW
N
457.794 370.294 M
457.794 34.706 L
S
GR
GS
[0.75 0 0 0.75 0 0] CT
1 LJ
0.667 LW
N
457.794 34.706 M
122.206 34.706 L
S
GR
GS
[0.75 0 0 0.75 0 0] CT
1 LJ
0.667 LW
N
122.206 34.706 M
122.206 370.294 L
S
GR
GS
[0.75 0 0 0.75 0 0] CT
1 LJ
0.667 LW
N
222.882 303.176 M
256.441 303.176 L
S
GR
GS
[0.75 0 0 0.75 0 0] CT
1 LJ
0.667 LW
N
256.441 303.176 M
256.441 269.618 L
S
GR
GS
[0.75 0 0 0.75 0 0] CT
1 LJ
0.667 LW
N
256.441 269.618 M
222.882 269.618 L
S
GR
GS
[0.75 0 0 0.75 0 0] CT
1 LJ
0.667 LW
N
222.882 269.618 M
222.882 303.176 L
S
GR
GS
[0.75 0 0 0.75 0 0] CT
1 LJ
0.667 LW
N
373.897 303.176 M
390.676 303.176 L
S
GR
GS
[0.75 0 0 0.75 0 0] CT
1 LJ
0.667 LW
N
390.676 303.176 M
390.676 168.941 L
S
GR
GS
[0.75 0 0 0.75 0 0] CT
1 LJ
0.667 LW
N
390.676 168.941 M
373.897 168.941 L
S
GR
GS
[0.75 0 0 0.75 0 0] CT
1 LJ
0.667 LW
N
373.897 168.941 M
373.897 303.176 L
S
GR
GS
[0.75 0 0 0.75 0 0] CT
1 LJ
0.667 LW
N
155.765 135.382 M
222.882 135.382 L
S
GR
GS
[0.75 0 0 0.75 0 0] CT
1 LJ
0.667 LW
N
222.882 135.382 M
222.882 68.265 L
S
GR
GS
[0.75 0 0 0.75 0 0] CT
1 LJ
0.667 LW
N
222.882 68.265 M
155.765 68.265 L
S
GR
GS
[0.75 0 0 0.75 0 0] CT
1 LJ
0.667 LW
N
155.765 68.265 M
155.765 135.382 L
S
GR
GS
[0.75 0 0 0.75 0 0] CT
1 0 0 RC
1 LJ
0.667 LW
N
290 199.144 M
373.897 199.144 L
S
GR
GS
[0.75 0 0 0.75 0 0] CT
1 0 0 RC
1 LJ
0.667 LW
N
290 199.144 M
373.897 197.68 L
S
GR
GS
[0.75 0 0 0.75 0 0] CT
1 0 0 RC
1 LJ
0.667 LW
N
290 199.144 M
373.897 196.214 L
S
GR
GS
[0.75 0 0 0.75 0 0] CT
1 0 0 RC
1 LJ
0.667 LW
N
290 199.144 M
373.897 194.747 L
S
GR
GS
[0.75 0 0 0.75 0 0] CT
1 0 0 RC
1 LJ
0.667 LW
N
290 199.144 M
373.897 193.277 L
S
GR
GS
[0.75 0 0 0.75 0 0] CT
1 0 0 RC
1 LJ
0.667 LW
N
290 199.144 M
373.897 191.804 L
S
GR
GS
[0.75 0 0 0.75 0 0] CT
1 0 0 RC
1 LJ
0.667 LW
N
290 199.144 M
373.897 190.326 L
S
GR
GS
[0.75 0 0 0.75 0 0] CT
1 0 0 RC
1 LJ
0.667 LW
N
290 199.144 M
373.897 188.843 L
S
GR
GS
[0.75 0 0 0.75 0 0] CT
1 0 0 RC
1 LJ
0.667 LW
N
290 199.144 M
373.897 187.353 L
S
GR
GS
[0.75 0 0 0.75 0 0] CT
1 0 0 RC
1 LJ
0.667 LW
N
290 199.144 M
373.897 185.856 L
S
GR
GS
[0.75 0 0 0.75 0 0] CT
1 0 0 RC
1 LJ
0.667 LW
N
290 199.144 M
373.897 184.351 L
S
GR
GS
[0.75 0 0 0.75 0 0] CT
1 0 0 RC
1 LJ
0.667 LW
N
290 199.144 M
373.897 182.836 L
S
GR
GS
[0.75 0 0 0.75 0 0] CT
1 0 0 RC
1 LJ
0.667 LW
N
290 199.144 M
373.897 181.311 L
S
GR
GS
[0.75 0 0 0.75 0 0] CT
1 0 0 RC
1 LJ
0.667 LW
N
290 199.144 M
373.897 179.775 L
S
GR
GS
[0.75 0 0 0.75 0 0] CT
1 0 0 RC
1 LJ
0.667 LW
N
290 199.144 M
373.897 178.226 L
S
GR
GS
[0.75 0 0 0.75 0 0] CT
1 0 0 RC
1 LJ
0.667 LW
N
290 199.144 M
373.897 176.664 L
S
GR
GS
[0.75 0 0 0.75 0 0] CT
1 0 0 RC
1 LJ
0.667 LW
N
290 199.144 M
373.897 175.087 L
S
GR
GS
[0.75 0 0 0.75 0 0] CT
1 0 0 RC
1 LJ
0.667 LW
N
290 199.144 M
373.897 173.494 L
S
GR
GS
[0.75 0 0 0.75 0 0] CT
1 0 0 RC
1 LJ
0.667 LW
N
290 199.144 M
373.897 171.884 L
S
GR
GS
[0.75 0 0 0.75 0 0] CT
1 0 0 RC
1 LJ
0.667 LW
N
290 199.144 M
373.897 170.256 L
S
GR
GS
[0.75 0 0 0.75 0 0] CT
1 0 0 RC
1 LJ
0.667 LW
N
290 199.144 M
373.897 168.608 L
S
GR
GS
[0.75 0 0 0.75 0 0] CT
1 0 0 RC
1 LJ
0.667 LW
N
290 199.144 M
373.897 166.939 L
S
GR
GS
[0.75 0 0 0.75 0 0] CT
1 0 0 RC
1 LJ
0.667 LW
N
290 199.144 M
222.882 124.602 L
S
GR
GS
[0.75 0 0 0.75 0 0] CT
1 0 0 RC
1 LJ
0.667 LW
N
290 199.144 M
222.882 127.169 L
S
GR
GS
[0.75 0 0 0.75 0 0] CT
1 0 0 RC
1 LJ
0.667 LW
N
290 199.144 M
222.882 129.642 L
S
GR
GS
[0.75 0 0 0.75 0 0] CT
1 0 0 RC
1 LJ
0.667 LW
N
290 199.144 M
222.882 132.026 L
S
GR
GS
[0.75 0 0 0.75 0 0] CT
1 0 0 RC
1 LJ
0.667 LW
N
290 199.144 M
220.498 132.026 L
S
GR
GS
[0.75 0 0 0.75 0 0] CT
1 0 0 RC
1 LJ
0.667 LW
N
290 199.144 M
218.025 132.026 L
S
GR
GS
[0.75 0 0 0.75 0 0] CT
1 0 0 RC
1 LJ
0.667 LW
N
290 199.144 M
215.458 132.026 L
S
GR
GS
[0.75 0 0 0.75 0 0] CT
1 0 0 RC
1 LJ
0.667 LW
N
290 199.144 M
225.185 266.262 L
S
GR
GS
[0.75 0 0 0.75 0 0] CT
1 0 0 RC
1 LJ
0.667 LW
N
290 199.144 M
227.412 266.262 L
S
GR
GS
[0.75 0 0 0.75 0 0] CT
1 0 0 RC
1 LJ
0.667 LW
N
290 199.144 M
229.567 266.262 L
S
GR
GS
[0.75 0 0 0.75 0 0] CT
1 0 0 RC
1 LJ
0.667 LW
N
290 199.144 M
231.656 266.262 L
S
GR
GS
[0.75 0 0 0.75 0 0] CT
1 0 0 RC
1 LJ
0.667 LW
N
290 199.144 M
233.682 266.262 L
S
GR
GS
[0.75 0 0 0.75 0 0] CT
1 0 0 RC
1 LJ
0.667 LW
N
290 199.144 M
235.649 266.262 L
S
GR
GS
[0.75 0 0 0.75 0 0] CT
1 0 0 RC
1 LJ
0.667 LW
N
290 199.144 M
237.562 266.262 L
S
GR
GS
[0.75 0 0 0.75 0 0] CT
1 0 0 RC
1 LJ
0.667 LW
N
290 199.144 M
239.423 266.262 L
S
GR
GS
[0.75 0 0 0.75 0 0] CT
1 0 0 RC
1 LJ
0.667 LW
N
290 199.144 M
241.236 266.262 L
S
GR
GS
[0.75 0 0 0.75 0 0] CT
1 0 0 RC
1 LJ
0.667 LW
N
290 199.144 M
243.004 266.262 L
S
GR
GS
[0.75 0 0 0.75 0 0] CT
1 0 0 RC
1 LJ
0.667 LW
N
290 199.144 M
244.729 266.262 L
S
GR
GS
[0.75 0 0 0.75 0 0] CT
1 0 0 RC
1 LJ
0.667 LW
N
290 199.144 M
246.413 266.262 L
S
GR
GS
[0.75 0 0 0.75 0 0] CT
1 0 0 RC
1 LJ
0.667 LW
N
290 199.144 M
248.06 266.262 L
S
GR
GS
[0.75 0 0 0.75 0 0] CT
1 0 0 RC
1 LJ
0.667 LW
N
290 199.144 M
249.672 266.262 L
S
GR
GS
[0.75 0 0 0.75 0 0] CT
1 0 0 RC
1 LJ
0.667 LW
N
290 199.144 M
251.25 266.262 L
S
GR
GS
[0.75 0 0 0.75 0 0] CT
1 0 0 RC
1 LJ
0.667 LW
N
290 199.144 M
252.796 266.262 L
S
GR
GS
[0.75 0 0 0.75 0 0] CT
1 0 0 RC
1 LJ
0.667 LW
N
290 199.144 M
254.313 266.262 L
S
GR
GS
[0.75 0 0 0.75 0 0] CT
1 0 0 RC
1 LJ
0.667 LW
N
290 199.144 M
255.802 266.262 L
S
GR
GS
[0.75 0 0 0.75 0 0] CT
1 0 0 RC
1 LJ
0.667 LW
N
290 199.144 M
256.441 267.95 L
S
GR
GS
[0.75 0 0 0.75 0 0] CT
1 0 0 RC
1 LJ
0.667 LW
N
290 199.144 M
256.441 271.111 L
S
GR
GS
[0.75 0 0 0.75 0 0] CT
1 0 0 RC
1 LJ
0.667 LW
N
290 199.144 M
256.441 274.518 L
S
GR
GS
[0.75 0 0 0.75 0 0] CT
1 0 0 RC
1 LJ
0.667 LW
N
290 199.144 M
256.441 278.204 L
S
GR
GS
[0.75 0 0 0.75 0 0] CT
1 0 0 RC
1 LJ
0.667 LW
N
290 199.144 M
256.441 282.205 L
S
GR
GS
[0.75 0 0 0.75 0 0] CT
1 0 0 RC
1 LJ
0.667 LW
N
290 199.144 M
256.441 286.568 L
S
GR
GS
[0.75 0 0 0.75 0 0] CT
1 0 0 RC
1 LJ
0.667 LW
N
290 199.144 M
256.441 291.346 L
S
GR
GS
[0.75 0 0 0.75 0 0] CT
1 0 0 RC
1 LJ
0.667 LW
N
290 199.144 M
373.897 253.628 L
S
GR
GS
[0.75 0 0 0.75 0 0] CT
1 0 0 RC
1 LJ
0.667 LW
N
290 199.144 M
373.897 251.569 L
S
GR
GS
[0.75 0 0 0.75 0 0] CT
1 0 0 RC
1 LJ
0.667 LW
N
290 199.144 M
373.897 249.555 L
S
GR
GS
[0.75 0 0 0.75 0 0] CT
1 0 0 RC
1 LJ
0.667 LW
N
290 199.144 M
373.897 247.582 L
S
GR
GS
[0.75 0 0 0.75 0 0] CT
1 0 0 RC
1 LJ
0.667 LW
N
290 199.144 M
373.897 245.649 L
S
GR
GS
[0.75 0 0 0.75 0 0] CT
1 0 0 RC
1 LJ
0.667 LW
N
290 199.144 M
373.897 243.753 L
S
GR
GS
[0.75 0 0 0.75 0 0] CT
1 0 0 RC
1 LJ
0.667 LW
N
290 199.144 M
373.897 241.892 L
S
GR
GS
[0.75 0 0 0.75 0 0] CT
1 0 0 RC
1 LJ
0.667 LW
N
290 199.144 M
373.897 240.063 L
S
GR
GS
[0.75 0 0 0.75 0 0] CT
1 0 0 RC
1 LJ
0.667 LW
N
290 199.144 M
373.897 238.266 L
S
GR
GS
[0.75 0 0 0.75 0 0] CT
1 0 0 RC
1 LJ
0.667 LW
N
290 199.144 M
373.897 236.497 L
S
GR
GS
[0.75 0 0 0.75 0 0] CT
1 0 0 RC
1 LJ
0.667 LW
N
290 199.144 M
373.897 234.756 L
S
GR
GS
[0.75 0 0 0.75 0 0] CT
1 0 0 RC
1 LJ
0.667 LW
N
290 199.144 M
373.897 233.041 L
S
GR
GS
[0.75 0 0 0.75 0 0] CT
1 0 0 RC
1 LJ
0.667 LW
N
290 199.144 M
373.897 231.349 L
S
GR
GS
[0.75 0 0 0.75 0 0] CT
1 0 0 RC
1 LJ
0.667 LW
N
290 199.144 M
373.897 229.68 L
S
GR
GS
[0.75 0 0 0.75 0 0] CT
1 0 0 RC
1 LJ
0.667 LW
N
290 199.144 M
373.897 228.032 L
S
GR
GS
[0.75 0 0 0.75 0 0] CT
1 0 0 RC
1 LJ
0.667 LW
N
290 199.144 M
373.897 226.404 L
S
GR
GS
[0.75 0 0 0.75 0 0] CT
1 0 0 RC
1 LJ
0.667 LW
N
290 199.144 M
373.897 224.794 L
S
GR
GS
[0.75 0 0 0.75 0 0] CT
1 0 0 RC
1 LJ
0.667 LW
N
290 199.144 M
373.897 223.201 L
S
GR
GS
[0.75 0 0 0.75 0 0] CT
1 0 0 RC
1 LJ
0.667 LW
N
290 199.144 M
373.897 221.624 L
S
GR
GS
[0.75 0 0 0.75 0 0] CT
1 0 0 RC
1 LJ
0.667 LW
N
290 199.144 M
373.897 220.062 L
S
GR
GS
[0.75 0 0 0.75 0 0] CT
1 0 0 RC
1 LJ
0.667 LW
N
290 199.144 M
373.897 218.513 L
S
GR
GS
[0.75 0 0 0.75 0 0] CT
1 0 0 RC
1 LJ
0.667 LW
N
290 199.144 M
373.897 216.977 L
S
GR
GS
[0.75 0 0 0.75 0 0] CT
1 0 0 RC
1 LJ
0.667 LW
N
290 199.144 M
373.897 215.452 L
S
GR
GS
[0.75 0 0 0.75 0 0] CT
1 0 0 RC
1 LJ
0.667 LW
N
290 199.144 M
373.897 213.937 L
S
GR
GS
[0.75 0 0 0.75 0 0] CT
1 0 0 RC
1 LJ
0.667 LW
N
290 199.144 M
373.897 212.432 L
S
GR
GS
[0.75 0 0 0.75 0 0] CT
1 0 0 RC
1 LJ
0.667 LW
N
290 199.144 M
373.897 210.935 L
S
GR
GS
[0.75 0 0 0.75 0 0] CT
1 0 0 RC
1 LJ
0.667 LW
N
290 199.144 M
373.897 209.445 L
S
GR
GS
[0.75 0 0 0.75 0 0] CT
1 0 0 RC
1 LJ
0.667 LW
N
290 199.144 M
373.897 207.962 L
S
GR
GS
[0.75 0 0 0.75 0 0] CT
1 0 0 RC
1 LJ
0.667 LW
N
290 199.144 M
373.897 206.484 L
S
GR
GS
[0.75 0 0 0.75 0 0] CT
1 0 0 RC
1 LJ
0.667 LW
N
290 199.144 M
373.897 205.011 L
S
GR
GS
[0.75 0 0 0.75 0 0] CT
1 0 0 RC
1 LJ
0.667 LW
N
290 199.144 M
373.897 203.541 L
S
GR
GS
[0.75 0 0 0.75 0 0] CT
1 0 0 RC
1 LJ
0.667 LW
N
290 199.144 M
373.897 202.074 L
S
GR
GS
[0.75 0 0 0.75 0 0] CT
1 0 0 RC
1 LJ
0.667 LW
N
290 199.144 M
373.897 200.609 L
S
GR
GS
[0.75 0 0 0.75 278.5275 250.52634] CT
N
f-1057828618
f
GR
GS
[0.75 0 0 0.75 282.40716 161.97395] CT
N
f-1057828618
f
GR
GS
[0.75 0 0 0.75 189.59469 164.23738] CT
N
f-1057828618
f
GR
GS
[0.75 0 0 0.75 199.70606 139.00343] CT
N
f-1057828618
f
GR
GS
[0.75 0 0 0.75 332.35792 75.00743] CT
N
f-1057828618
f
GR
GS
[0.75 0 0 0.75 235.86626 101.32281] CT
N
f-1057828618
f
GR
GS
[0.75 0 0 0.75 305.52196 58.18661] CT
N
f-1057828618
f
GR
GS
[0.75 0 0 0.75 161.20809 264.58429] CT
N
f-1057828618
f
GR
GS
[0.75 0 0 0.75 248.28777 222.42874] CT
N
f-1057828618
f
GR
GS
[0.75 0 0 0.75 239.73985 162.03275] CT
N
f-1057828618
f
GR
GS
[0.75 0 0 0.75 334.15093 36.46614] CT
N
f-1057828618
f
GR
GS
[0.75 0 0 0.75 113.27537 78.87314] CT
N
f-1057828618
f
GR
GS
[0.75 0 0 0.75 217.62556 163.98774] CT
N
f-1057828618
f
GR
GS
[0.75 0 0 0.75 222.93393 193.79965] CT
N
f-1057828618
f
GR
GS
[0.75 0 0 0.75 114.3484 262.84682] CT
N
f-1057828618
f
GR
GS
[0.75 0 0 0.75 319.35098 91.24126] CT
N
f-1057828618
f
GR
GS
[0.75 0 0 0.75 314.2473 150.16488] CT
N
f-1057828618
f
GR
GS
[0.75 0 0 0.75 202.14425 227.40113] CT
N
f-1057828618
f
GR
GS
[0.75 0 0 0.75 288.40709 170.19974] CT
N
f-1057828618
f
GR
GS
[0.75 0 0 0.75 129.02174 235.26274] CT
N
f-1057828618
f
GR
GS
[0.75 0 0 0.75 247.65662 88.52569] CT
N
f-1057828618
f
GR
GS
[0.75 0 0 0.75 157.25109 185.00994] CT
N
f-1057828618
f
GR
GS
[0.75 0 0 0.75 203.82216 40.67336] CT
N
f-1057828618
f
GR
GS
[0.75 0 0 0.75 304.08165 273.39841] CT
N
f-1057828618
f
GR
GS
[0.75 0 0 0.75 141.03746 69.05453] CT
N
f-1057828618
f
GR
GS
[0.75 0 0 0.75 168.13118 120.01317] CT
N
f-1057828618
f
GR
GS
[0.75 0 0 0.75 213.29539 142.12285] CT
N
f-1057828618
f
GR
GS
[0.75 0 0 0.75 176.67872 113.99356] CT
N
f-1057828618
f
GR
GS
[0.75 0 0 0.75 292.62625 94.83435] CT
N
f-1057828618
f
GR
GS
[0.75 0 0 0.75 340.19632 253.93865] CT
N
f-1057828618
f
GR
GS
[0.75 0 0 0.75 131.68528 56.84298] CT
N
f-1057828618
f
GR
GS
[0.75 0 0 0.75 151.27496 274.10577] CT
N
f-1057828618
f
GR
GS
[0.75 0 0 0.75 268.40117 203.6472] CT
N
f-1057828618
f
GR
GS
[0.75 0 0 0.75 186.15731 232.43761] CT
N
f-1057828618
f
GR
GS
[0.75 0 0 0.75 336.72734 44.5805] CT
N
f-1057828618
f
GR
GS
[0.75 0 0 0.75 336.37514 260.56018] CT
N
f-1057828618
f
GR
GS
[0.75 0 0 0.75 253.66754 131.46455] CT
N
f-1057828618
f
GR
GS
[0.75 0 0 0.75 308.13371 117.35525] CT
N
f-1057828618
f
GR
GS
[0.75 0 0 0.75 192.80491 113.80186] CT
N
f-1057828618
f
GR
GS
[0.75 0 0 0.75 250.70581 60.10286] CT
N
f-1057828618
f
GR
GS
[0.75 0 0 0.75 339.62977 263.63784] CT
N
f-1057828618
f
GR
GS
[0.75 0 0 0.75 232.46995 72.12535] CT
N
f-1057828618
f
GR
GS
[0.75 0 0 0.75 326.63127 144.59547] CT
N
f-1057828618
f
GR
GS
[0.75 0 0 0.75 272.95844 102.95867] CT
N
f-1057828618
f
GR
GS
[0.75 0 0 0.75 213.48264 224.26014] CT
N
f-1057828618
f
GR
GS
[0.75 0 0 0.75 252.4929 140.98182] CT
N
f-1057828618
f
GR
GS
[0.75 0 0 0.75 315.06477 100.90243] CT
N
f-1057828618
f
GR
GS
[0.75 0 0 0.75 141.6747 36.99445] CT
N
f-1057828618
f
GR
GS
[0.75 0 0 0.75 191.16462 165.83324] CT
N
f-1057828618
f
GR
GS
[0.75 0 0 0.75 341.37618 256.22672] CT
N
f-1057828618
f
GR
GS
[0.75 0 0 0.75 192.92276 263.28857] CT
N
f-1057828618
f
GR
GS
[0.75 0 0 0.75 257.48277 119.29345] CT
N
f-1057828618
f
GR
GS
[0.75 0 0 0.75 318.51579 77.32934] CT
N
f-1057828618
f
GR
GS
[0.75 0 0 0.75 342.18322 103.75383] CT
N
f-1057828618
f
GR
GS
[0.75 0 0 0.75 256.04984 190.80964] CT
N
f-1057828618
f
GR
GS
[0.75 0 0 0.75 118.9469 39.41519] CT
N
f-1057828618
f
GR
GS
[0.75 0 0 0.75 100.744 146.79327] CT
N
f-1057828618
f
GR
GS
[0.75 0 0 0.75 247.22253 37.65427] CT
N
f-1057828618
f
GR
GS
[0.75 0 0 0.75 234.39965 259.19721] CT
N
f-1057828618
f
GR
GS
[0.75 0 0 0.75 333.77243 225.61246] CT
N
f-1057828618
f
GR
GS
[0.75 0 0 0.75 279.44257 82.65293] CT
N
f-1057828618
f
GR
GS
[0.75 0 0 0.75 258.40386 47.62758] CT
N
f-1057828618
f
GR
GS
[0.75 0 0 0.75 223.36775 80.7595] CT
N
f-1057828618
f
GR
GS
[0.75 0 0 0.75 157.0675 203.33725] CT
N
f-1057828618
f
GR
GS
[0.75 0 0 0.75 333.77975 239.50237] CT
N
f-1057828618
f
GR
GS
[0.75 0 0 0.75 227.619 64.30899] CT
N
f-1057828618
f
GR
GS
[0.75 0 0 0.75 99.27315 80.17961] CT
N
f-1057828618
f
GR
GS
[0.75 0 0 0.75 266.91062 209.55469] CT
N
f-1057828618
f
GR
GS
[0.75 0 0 0.75 222.46239 220.38265] CT
N
f-1057828618
f
GR
GS
[0.75 0 0 0.75 106.51189 196.92188] CT
N
f-1057828618
f
GR
GS
[0.75 0 0 0.75 315.66868 68.9272] CT
N
f-1057828618
f
GR
GS
[0.75 0 0 0.75 174.7634 70.78459] CT
N
f-1057828618
f
GR
GS
[0.75 0 0 0.75 149.46817 134.08475] CT
N
f-1057828618
f
GR
GS
[0.75 0 0 0.75 120.33428 133.79612] CT
N
f-1057828618
f
GR
GS
[0.75 0 0 0.75 169.91091 205.73232] CT
N
f-1057828618
f
GR
GS
[0.75 0 0 0.75 149.14881 101.75483] CT
N
f-1057828618
f
GR
GS
[0.75 0 0 0.75 255.75634 77.30949] CT
N
f-1057828618
f
GR
GS
[0.75 0 0 0.75 108.30634 166.57652] CT
N
f-1057828618
f
GR
GS
[0.75 0 0 0.75 160.97807 165.41206] CT
N
f-1057828618
f
GR
GS
[0.75 0 0 0.75 162.58607 160.51746] CT
N
f-1057828618
f
GR
GS
[0.75 0 0 0.75 313.15933 207.48889] CT
N
f-1057828618
f
GR
GS
[0.75 0 0 0.75 203.48845 107.73458] CT
N
f-1057828618
f
GR
GS
[0.75 0 0 0.75 281.91133 50.2762] CT
N
f-1057828618
f
GR
GS
[0.75 0 0 0.75 243.49878 49.05264] CT
N
f-1057828618
f
GR
GS
[0.75 0 0 0.75 288.79555 89.65771] CT
N
f-1057828618
f
GR
GS
[0.75 0 0 0.75 120.32975 212.15213] CT
N
f-1057828618
f
GR
GS
[0.75 0 0 0.75 337.9503 104.14483] CT
N
f-1057828618
f
GR
GS
[0.75 0 0 0.75 305.23872 244.53996] CT
N
f-1057828618
f
GR
GS
[0.75 0 0 0.75 104.40169 246.63652] CT
N
f-1057828618
f
GR
GS
[0.75 0 0 0.75 208.99331 229.67203] CT
N
f-1057828618
f
GR
GS
[0.75 0 0 0.75 173.61847 241.04109] CT
N
f-1057828618
f
GR
GS
[0.75 0 0 0.75 250.27148 130.47027] CT
N
f-1057828618
f
GR
GS
[0.75 0 0 0.75 149.61868 259.2561] CT
N
f-1057828618
f
GR
GS
[0.75 0 0 0.75 237.60635 70.74833] CT
N
f-1057828618
f
GR
GS
[0.75 0 0 0.75 243.46353 95.77229] CT
N
f-1057828618
f
GR
GS
[0.75 0 0 0.75 242.63869 44.69029] CT
N
f-1057828618
f
GR
GS
[0.75 0 0 0.75 204.51974 153.7278] CT
N
f-1057828618
f
GR
GS
[0.75 0 0 0.75 100.57019 112.89234] CT
N
f-1057828618
f
GR
GS
[0.75 0 0 0.75 220.97708 53.68436] CT
N
f-1057828618
f
GR
GS
[0.75 0 0 0.75 194.2765 142.17846] CT
N
f-1057828618
f
GR
GS
[0.75 0 0 0.75 278.5275 250.52634] CT
1 1 0 RC
10.0 ML
0.667 LW
N
0 -4 M
0 4 L
-4 0 M
4 0 L
-2.828 -2.828 M
2.828 2.828 L
-2.828 2.828 M
2.828 -2.828 L
S
GR
GS
[0.75 0 0 0.75 282.40716 161.97395] CT
1 1 0 RC
10.0 ML
0.667 LW
N
0 -4 M
0 4 L
-4 0 M
4 0 L
-2.828 -2.828 M
2.828 2.828 L
-2.828 2.828 M
2.828 -2.828 L
S
GR
GS
[0.75 0 0 0.75 189.59469 164.23738] CT
1 1 0 RC
10.0 ML
0.667 LW
N
0 -4 M
0 4 L
-4 0 M
4 0 L
-2.828 -2.828 M
2.828 2.828 L
-2.828 2.828 M
2.828 -2.828 L
S
GR
GS
[0.75 0 0 0.75 199.70606 139.00343] CT
1 1 0 RC
10.0 ML
0.667 LW
N
0 -4 M
0 4 L
-4 0 M
4 0 L
-2.828 -2.828 M
2.828 2.828 L
-2.828 2.828 M
2.828 -2.828 L
S
GR
GS
[0.75 0 0 0.75 332.35792 75.00743] CT
1 1 0 RC
10.0 ML
0.667 LW
N
0 -4 M
0 4 L
-4 0 M
4 0 L
-2.828 -2.828 M
2.828 2.828 L
-2.828 2.828 M
2.828 -2.828 L
S
GR
GS
[0.75 0 0 0.75 235.86626 101.32281] CT
1 1 0 RC
10.0 ML
0.667 LW
N
0 -4 M
0 4 L
-4 0 M
4 0 L
-2.828 -2.828 M
2.828 2.828 L
-2.828 2.828 M
2.828 -2.828 L
S
GR
GS
[0.75 0 0 0.75 305.52196 58.18661] CT
1 1 0 RC
10.0 ML
0.667 LW
N
0 -4 M
0 4 L
-4 0 M
4 0 L
-2.828 -2.828 M
2.828 2.828 L
-2.828 2.828 M
2.828 -2.828 L
S
GR
GS
[0.75 0 0 0.75 161.20809 264.58429] CT
1 1 0 RC
10.0 ML
0.667 LW
N
0 -4 M
0 4 L
-4 0 M
4 0 L
-2.828 -2.828 M
2.828 2.828 L
-2.828 2.828 M
2.828 -2.828 L
S
GR
GS
[0.75 0 0 0.75 248.28777 222.42874] CT
1 1 0 RC
10.0 ML
0.667 LW
N
0 -4 M
0 4 L
-4 0 M
4 0 L
-2.828 -2.828 M
2.828 2.828 L
-2.828 2.828 M
2.828 -2.828 L
S
GR
GS
[0.75 0 0 0.75 239.73985 162.03275] CT
1 1 0 RC
10.0 ML
0.667 LW
N
0 -4 M
0 4 L
-4 0 M
4 0 L
-2.828 -2.828 M
2.828 2.828 L
-2.828 2.828 M
2.828 -2.828 L
S
GR
GS
[0.75 0 0 0.75 334.15093 36.46614] CT
1 1 0 RC
10.0 ML
0.667 LW
N
0 -4 M
0 4 L
-4 0 M
4 0 L
-2.828 -2.828 M
2.828 2.828 L
-2.828 2.828 M
2.828 -2.828 L
S
GR
GS
[0.75 0 0 0.75 113.27537 78.87314] CT
1 1 0 RC
10.0 ML
0.667 LW
N
0 -4 M
0 4 L
-4 0 M
4 0 L
-2.828 -2.828 M
2.828 2.828 L
-2.828 2.828 M
2.828 -2.828 L
S
GR
GS
[0.75 0 0 0.75 217.62556 163.98774] CT
1 1 0 RC
10.0 ML
0.667 LW
N
0 -4 M
0 4 L
-4 0 M
4 0 L
-2.828 -2.828 M
2.828 2.828 L
-2.828 2.828 M
2.828 -2.828 L
S
GR
GS
[0.75 0 0 0.75 222.93393 193.79965] CT
1 1 0 RC
10.0 ML
0.667 LW
N
0 -4 M
0 4 L
-4 0 M
4 0 L
-2.828 -2.828 M
2.828 2.828 L
-2.828 2.828 M
2.828 -2.828 L
S
GR
GS
[0.75 0 0 0.75 114.3484 262.84682] CT
1 1 0 RC
10.0 ML
0.667 LW
N
0 -4 M
0 4 L
-4 0 M
4 0 L
-2.828 -2.828 M
2.828 2.828 L
-2.828 2.828 M
2.828 -2.828 L
S
GR
GS
[0.75 0 0 0.75 319.35098 91.24126] CT
1 1 0 RC
10.0 ML
0.667 LW
N
0 -4 M
0 4 L
-4 0 M
4 0 L
-2.828 -2.828 M
2.828 2.828 L
-2.828 2.828 M
2.828 -2.828 L
S
GR
GS
[0.75 0 0 0.75 314.2473 150.16488] CT
1 1 0 RC
10.0 ML
0.667 LW
N
0 -4 M
0 4 L
-4 0 M
4 0 L
-2.828 -2.828 M
2.828 2.828 L
-2.828 2.828 M
2.828 -2.828 L
S
GR
GS
[0.75 0 0 0.75 202.14425 227.40113] CT
1 1 0 RC
10.0 ML
0.667 LW
N
0 -4 M
0 4 L
-4 0 M
4 0 L
-2.828 -2.828 M
2.828 2.828 L
-2.828 2.828 M
2.828 -2.828 L
S
GR
GS
[0.75 0 0 0.75 288.40709 170.19974] CT
1 1 0 RC
10.0 ML
0.667 LW
N
0 -4 M
0 4 L
-4 0 M
4 0 L
-2.828 -2.828 M
2.828 2.828 L
-2.828 2.828 M
2.828 -2.828 L
S
GR
GS
[0.75 0 0 0.75 129.02174 235.26274] CT
1 1 0 RC
10.0 ML
0.667 LW
N
0 -4 M
0 4 L
-4 0 M
4 0 L
-2.828 -2.828 M
2.828 2.828 L
-2.828 2.828 M
2.828 -2.828 L
S
GR
GS
[0.75 0 0 0.75 247.65662 88.52569] CT
1 1 0 RC
10.0 ML
0.667 LW
N
0 -4 M
0 4 L
-4 0 M
4 0 L
-2.828 -2.828 M
2.828 2.828 L
-2.828 2.828 M
2.828 -2.828 L
S
GR
GS
[0.75 0 0 0.75 157.25109 185.00994] CT
1 1 0 RC
10.0 ML
0.667 LW
N
0 -4 M
0 4 L
-4 0 M
4 0 L
-2.828 -2.828 M
2.828 2.828 L
-2.828 2.828 M
2.828 -2.828 L
S
GR
GS
[0.75 0 0 0.75 203.82216 40.67336] CT
1 1 0 RC
10.0 ML
0.667 LW
N
0 -4 M
0 4 L
-4 0 M
4 0 L
-2.828 -2.828 M
2.828 2.828 L
-2.828 2.828 M
2.828 -2.828 L
S
GR
GS
[0.75 0 0 0.75 304.08165 273.39841] CT
1 1 0 RC
10.0 ML
0.667 LW
N
0 -4 M
0 4 L
-4 0 M
4 0 L
-2.828 -2.828 M
2.828 2.828 L
-2.828 2.828 M
2.828 -2.828 L
S
GR
GS
[0.75 0 0 0.75 141.03746 69.05453] CT
1 1 0 RC
10.0 ML
0.667 LW
N
0 -4 M
0 4 L
-4 0 M
4 0 L
-2.828 -2.828 M
2.828 2.828 L
-2.828 2.828 M
2.828 -2.828 L
S
GR
GS
[0.75 0 0 0.75 168.13118 120.01317] CT
1 1 0 RC
10.0 ML
0.667 LW
N
0 -4 M
0 4 L
-4 0 M
4 0 L
-2.828 -2.828 M
2.828 2.828 L
-2.828 2.828 M
2.828 -2.828 L
S
GR
GS
[0.75 0 0 0.75 213.29539 142.12285] CT
1 1 0 RC
10.0 ML
0.667 LW
N
0 -4 M
0 4 L
-4 0 M
4 0 L
-2.828 -2.828 M
2.828 2.828 L
-2.828 2.828 M
2.828 -2.828 L
S
GR
GS
[0.75 0 0 0.75 176.67872 113.99356] CT
1 1 0 RC
10.0 ML
0.667 LW
N
0 -4 M
0 4 L
-4 0 M
4 0 L
-2.828 -2.828 M
2.828 2.828 L
-2.828 2.828 M
2.828 -2.828 L
S
GR
GS
[0.75 0 0 0.75 292.62625 94.83435] CT
1 1 0 RC
10.0 ML
0.667 LW
N
0 -4 M
0 4 L
-4 0 M
4 0 L
-2.828 -2.828 M
2.828 2.828 L
-2.828 2.828 M
2.828 -2.828 L
S
GR
GS
[0.75 0 0 0.75 340.19632 253.93865] CT
1 1 0 RC
10.0 ML
0.667 LW
N
0 -4 M
0 4 L
-4 0 M
4 0 L
-2.828 -2.828 M
2.828 2.828 L
-2.828 2.828 M
2.828 -2.828 L
S
GR
GS
[0.75 0 0 0.75 131.68528 56.84298] CT
1 1 0 RC
10.0 ML
0.667 LW
N
0 -4 M
0 4 L
-4 0 M
4 0 L
-2.828 -2.828 M
2.828 2.828 L
-2.828 2.828 M
2.828 -2.828 L
S
GR
GS
[0.75 0 0 0.75 151.27496 274.10577] CT
1 1 0 RC
10.0 ML
0.667 LW
N
0 -4 M
0 4 L
-4 0 M
4 0 L
-2.828 -2.828 M
2.828 2.828 L
-2.828 2.828 M
2.828 -2.828 L
S
GR
GS
[0.75 0 0 0.75 268.40117 203.6472] CT
1 1 0 RC
10.0 ML
0.667 LW
N
0 -4 M
0 4 L
-4 0 M
4 0 L
-2.828 -2.828 M
2.828 2.828 L
-2.828 2.828 M
2.828 -2.828 L
S
GR
GS
[0.75 0 0 0.75 186.15731 232.43761] CT
1 1 0 RC
10.0 ML
0.667 LW
N
0 -4 M
0 4 L
-4 0 M
4 0 L
-2.828 -2.828 M
2.828 2.828 L
-2.828 2.828 M
2.828 -2.828 L
S
GR
GS
[0.75 0 0 0.75 336.72734 44.5805] CT
1 1 0 RC
10.0 ML
0.667 LW
N
0 -4 M
0 4 L
-4 0 M
4 0 L
-2.828 -2.828 M
2.828 2.828 L
-2.828 2.828 M
2.828 -2.828 L
S
GR
GS
[0.75 0 0 0.75 336.37514 260.56018] CT
1 1 0 RC
10.0 ML
0.667 LW
N
0 -4 M
0 4 L
-4 0 M
4 0 L
-2.828 -2.828 M
2.828 2.828 L
-2.828 2.828 M
2.828 -2.828 L
S
GR
GS
[0.75 0 0 0.75 253.66754 131.46455] CT
1 1 0 RC
10.0 ML
0.667 LW
N
0 -4 M
0 4 L
-4 0 M
4 0 L
-2.828 -2.828 M
2.828 2.828 L
-2.828 2.828 M
2.828 -2.828 L
S
GR
GS
[0.75 0 0 0.75 308.13371 117.35525] CT
1 1 0 RC
10.0 ML
0.667 LW
N
0 -4 M
0 4 L
-4 0 M
4 0 L
-2.828 -2.828 M
2.828 2.828 L
-2.828 2.828 M
2.828 -2.828 L
S
GR
GS
[0.75 0 0 0.75 192.80491 113.80186] CT
1 1 0 RC
10.0 ML
0.667 LW
N
0 -4 M
0 4 L
-4 0 M
4 0 L
-2.828 -2.828 M
2.828 2.828 L
-2.828 2.828 M
2.828 -2.828 L
S
GR
GS
[0.75 0 0 0.75 250.70581 60.10286] CT
1 1 0 RC
10.0 ML
0.667 LW
N
0 -4 M
0 4 L
-4 0 M
4 0 L
-2.828 -2.828 M
2.828 2.828 L
-2.828 2.828 M
2.828 -2.828 L
S
GR
GS
[0.75 0 0 0.75 339.62977 263.63784] CT
1 1 0 RC
10.0 ML
0.667 LW
N
0 -4 M
0 4 L
-4 0 M
4 0 L
-2.828 -2.828 M
2.828 2.828 L
-2.828 2.828 M
2.828 -2.828 L
S
GR
GS
[0.75 0 0 0.75 232.46995 72.12535] CT
1 1 0 RC
10.0 ML
0.667 LW
N
0 -4 M
0 4 L
-4 0 M
4 0 L
-2.828 -2.828 M
2.828 2.828 L
-2.828 2.828 M
2.828 -2.828 L
S
GR
GS
[0.75 0 0 0.75 326.63127 144.59547] CT
1 1 0 RC
10.0 ML
0.667 LW
N
0 -4 M
0 4 L
-4 0 M
4 0 L
-2.828 -2.828 M
2.828 2.828 L
-2.828 2.828 M
2.828 -2.828 L
S
GR
GS
[0.75 0 0 0.75 272.95844 102.95867] CT
1 1 0 RC
10.0 ML
0.667 LW
N
0 -4 M
0 4 L
-4 0 M
4 0 L
-2.828 -2.828 M
2.828 2.828 L
-2.828 2.828 M
2.828 -2.828 L
S
GR
GS
[0.75 0 0 0.75 213.48264 224.26014] CT
1 1 0 RC
10.0 ML
0.667 LW
N
0 -4 M
0 4 L
-4 0 M
4 0 L
-2.828 -2.828 M
2.828 2.828 L
-2.828 2.828 M
2.828 -2.828 L
S
GR
GS
[0.75 0 0 0.75 252.4929 140.98182] CT
1 1 0 RC
10.0 ML
0.667 LW
N
0 -4 M
0 4 L
-4 0 M
4 0 L
-2.828 -2.828 M
2.828 2.828 L
-2.828 2.828 M
2.828 -2.828 L
S
GR
GS
[0.75 0 0 0.75 315.06477 100.90243] CT
1 1 0 RC
10.0 ML
0.667 LW
N
0 -4 M
0 4 L
-4 0 M
4 0 L
-2.828 -2.828 M
2.828 2.828 L
-2.828 2.828 M
2.828 -2.828 L
S
GR
GS
[0.75 0 0 0.75 141.6747 36.99445] CT
1 1 0 RC
10.0 ML
0.667 LW
N
0 -4 M
0 4 L
-4 0 M
4 0 L
-2.828 -2.828 M
2.828 2.828 L
-2.828 2.828 M
2.828 -2.828 L
S
GR
GS
[0.75 0 0 0.75 191.16462 165.83324] CT
1 1 0 RC
10.0 ML
0.667 LW
N
0 -4 M
0 4 L
-4 0 M
4 0 L
-2.828 -2.828 M
2.828 2.828 L
-2.828 2.828 M
2.828 -2.828 L
S
GR
GS
[0.75 0 0 0.75 341.37618 256.22672] CT
1 1 0 RC
10.0 ML
0.667 LW
N
0 -4 M
0 4 L
-4 0 M
4 0 L
-2.828 -2.828 M
2.828 2.828 L
-2.828 2.828 M
2.828 -2.828 L
S
GR
GS
[0.75 0 0 0.75 192.92276 263.28857] CT
1 1 0 RC
10.0 ML
0.667 LW
N
0 -4 M
0 4 L
-4 0 M
4 0 L
-2.828 -2.828 M
2.828 2.828 L
-2.828 2.828 M
2.828 -2.828 L
S
GR
GS
[0.75 0 0 0.75 257.48277 119.29345] CT
1 1 0 RC
10.0 ML
0.667 LW
N
0 -4 M
0 4 L
-4 0 M
4 0 L
-2.828 -2.828 M
2.828 2.828 L
-2.828 2.828 M
2.828 -2.828 L
S
GR
GS
[0.75 0 0 0.75 318.51579 77.32934] CT
1 1 0 RC
10.0 ML
0.667 LW
N
0 -4 M
0 4 L
-4 0 M
4 0 L
-2.828 -2.828 M
2.828 2.828 L
-2.828 2.828 M
2.828 -2.828 L
S
GR
GS
[0.75 0 0 0.75 342.18322 103.75383] CT
1 1 0 RC
10.0 ML
0.667 LW
N
0 -4 M
0 4 L
-4 0 M
4 0 L
-2.828 -2.828 M
2.828 2.828 L
-2.828 2.828 M
2.828 -2.828 L
S
GR
GS
[0.75 0 0 0.75 256.04984 190.80964] CT
1 1 0 RC
10.0 ML
0.667 LW
N
0 -4 M
0 4 L
-4 0 M
4 0 L
-2.828 -2.828 M
2.828 2.828 L
-2.828 2.828 M
2.828 -2.828 L
S
GR
GS
[0.75 0 0 0.75 118.9469 39.41519] CT
1 1 0 RC
10.0 ML
0.667 LW
N
0 -4 M
0 4 L
-4 0 M
4 0 L
-2.828 -2.828 M
2.828 2.828 L
-2.828 2.828 M
2.828 -2.828 L
S
GR
GS
[0.75 0 0 0.75 100.744 146.79327] CT
1 1 0 RC
10.0 ML
0.667 LW
N
0 -4 M
0 4 L
-4 0 M
4 0 L
-2.828 -2.828 M
2.828 2.828 L
-2.828 2.828 M
2.828 -2.828 L
S
GR
GS
[0.75 0 0 0.75 247.22253 37.65427] CT
1 1 0 RC
10.0 ML
0.667 LW
N
0 -4 M
0 4 L
-4 0 M
4 0 L
-2.828 -2.828 M
2.828 2.828 L
-2.828 2.828 M
2.828 -2.828 L
S
GR
GS
[0.75 0 0 0.75 234.39965 259.19721] CT
1 1 0 RC
10.0 ML
0.667 LW
N
0 -4 M
0 4 L
-4 0 M
4 0 L
-2.828 -2.828 M
2.828 2.828 L
-2.828 2.828 M
2.828 -2.828 L
S
GR
GS
[0.75 0 0 0.75 333.77243 225.61246] CT
1 1 0 RC
10.0 ML
0.667 LW
N
0 -4 M
0 4 L
-4 0 M
4 0 L
-2.828 -2.828 M
2.828 2.828 L
-2.828 2.828 M
2.828 -2.828 L
S
GR
GS
[0.75 0 0 0.75 279.44257 82.65293] CT
1 1 0 RC
10.0 ML
0.667 LW
N
0 -4 M
0 4 L
-4 0 M
4 0 L
-2.828 -2.828 M
2.828 2.828 L
-2.828 2.828 M
2.828 -2.828 L
S
GR
GS
[0.75 0 0 0.75 258.40386 47.62758] CT
1 1 0 RC
10.0 ML
0.667 LW
N
0 -4 M
0 4 L
-4 0 M
4 0 L
-2.828 -2.828 M
2.828 2.828 L
-2.828 2.828 M
2.828 -2.828 L
S
GR
GS
[0.75 0 0 0.75 223.36775 80.7595] CT
1 1 0 RC
10.0 ML
0.667 LW
N
0 -4 M
0 4 L
-4 0 M
4 0 L
-2.828 -2.828 M
2.828 2.828 L
-2.828 2.828 M
2.828 -2.828 L
S
GR
GS
[0.75 0 0 0.75 157.0675 203.33725] CT
1 1 0 RC
10.0 ML
0.667 LW
N
0 -4 M
0 4 L
-4 0 M
4 0 L
-2.828 -2.828 M
2.828 2.828 L
-2.828 2.828 M
2.828 -2.828 L
S
GR
GS
[0.75 0 0 0.75 333.77975 239.50237] CT
1 1 0 RC
10.0 ML
0.667 LW
N
0 -4 M
0 4 L
-4 0 M
4 0 L
-2.828 -2.828 M
2.828 2.828 L
-2.828 2.828 M
2.828 -2.828 L
S
GR
GS
[0.75 0 0 0.75 227.619 64.30899] CT
1 1 0 RC
10.0 ML
0.667 LW
N
0 -4 M
0 4 L
-4 0 M
4 0 L
-2.828 -2.828 M
2.828 2.828 L
-2.828 2.828 M
2.828 -2.828 L
S
GR
GS
[0.75 0 0 0.75 99.27315 80.17961] CT
1 1 0 RC
10.0 ML
0.667 LW
N
0 -4 M
0 4 L
-4 0 M
4 0 L
-2.828 -2.828 M
2.828 2.828 L
-2.828 2.828 M
2.828 -2.828 L
S
GR
GS
[0.75 0 0 0.75 266.91062 209.55469] CT
1 1 0 RC
10.0 ML
0.667 LW
N
0 -4 M
0 4 L
-4 0 M
4 0 L
-2.828 -2.828 M
2.828 2.828 L
-2.828 2.828 M
2.828 -2.828 L
S
GR
GS
[0.75 0 0 0.75 222.46239 220.38265] CT
1 1 0 RC
10.0 ML
0.667 LW
N
0 -4 M
0 4 L
-4 0 M
4 0 L
-2.828 -2.828 M
2.828 2.828 L
-2.828 2.828 M
2.828 -2.828 L
S
GR
GS
[0.75 0 0 0.75 106.51189 196.92188] CT
1 1 0 RC
10.0 ML
0.667 LW
N
0 -4 M
0 4 L
-4 0 M
4 0 L
-2.828 -2.828 M
2.828 2.828 L
-2.828 2.828 M
2.828 -2.828 L
S
GR
GS
[0.75 0 0 0.75 315.66868 68.9272] CT
1 1 0 RC
10.0 ML
0.667 LW
N
0 -4 M
0 4 L
-4 0 M
4 0 L
-2.828 -2.828 M
2.828 2.828 L
-2.828 2.828 M
2.828 -2.828 L
S
GR
GS
[0.75 0 0 0.75 174.7634 70.78459] CT
1 1 0 RC
10.0 ML
0.667 LW
N
0 -4 M
0 4 L
-4 0 M
4 0 L
-2.828 -2.828 M
2.828 2.828 L
-2.828 2.828 M
2.828 -2.828 L
S
GR
GS
[0.75 0 0 0.75 149.46817 134.08475] CT
1 1 0 RC
10.0 ML
0.667 LW
N
0 -4 M
0 4 L
-4 0 M
4 0 L
-2.828 -2.828 M
2.828 2.828 L
-2.828 2.828 M
2.828 -2.828 L
S
GR
GS
[0.75 0 0 0.75 120.33428 133.79612] CT
1 1 0 RC
10.0 ML
0.667 LW
N
0 -4 M
0 4 L
-4 0 M
4 0 L
-2.828 -2.828 M
2.828 2.828 L
-2.828 2.828 M
2.828 -2.828 L
S
GR
GS
[0.75 0 0 0.75 169.91091 205.73232] CT
1 1 0 RC
10.0 ML
0.667 LW
N
0 -4 M
0 4 L
-4 0 M
4 0 L
-2.828 -2.828 M
2.828 2.828 L
-2.828 2.828 M
2.828 -2.828 L
S
GR
GS
[0.75 0 0 0.75 149.14881 101.75483] CT
1 1 0 RC
10.0 ML
0.667 LW
N
0 -4 M
0 4 L
-4 0 M
4 0 L
-2.828 -2.828 M
2.828 2.828 L
-2.828 2.828 M
2.828 -2.828 L
S
GR
GS
[0.75 0 0 0.75 255.75634 77.30949] CT
1 1 0 RC
10.0 ML
0.667 LW
N
0 -4 M
0 4 L
-4 0 M
4 0 L
-2.828 -2.828 M
2.828 2.828 L
-2.828 2.828 M
2.828 -2.828 L
S
GR
GS
[0.75 0 0 0.75 108.30634 166.57652] CT
1 1 0 RC
10.0 ML
0.667 LW
N
0 -4 M
0 4 L
-4 0 M
4 0 L
-2.828 -2.828 M
2.828 2.828 L
-2.828 2.828 M
2.828 -2.828 L
S
GR
GS
[0.75 0 0 0.75 160.97807 165.41206] CT
1 1 0 RC
10.0 ML
0.667 LW
N
0 -4 M
0 4 L
-4 0 M
4 0 L
-2.828 -2.828 M
2.828 2.828 L
-2.828 2.828 M
2.828 -2.828 L
S
GR
GS
[0.75 0 0 0.75 162.58607 160.51746] CT
1 1 0 RC
10.0 ML
0.667 LW
N
0 -4 M
0 4 L
-4 0 M
4 0 L
-2.828 -2.828 M
2.828 2.828 L
-2.828 2.828 M
2.828 -2.828 L
S
GR
GS
[0.75 0 0 0.75 313.15933 207.48889] CT
1 1 0 RC
10.0 ML
0.667 LW
N
0 -4 M
0 4 L
-4 0 M
4 0 L
-2.828 -2.828 M
2.828 2.828 L
-2.828 2.828 M
2.828 -2.828 L
S
GR
GS
[0.75 0 0 0.75 203.48845 107.73458] CT
1 1 0 RC
10.0 ML
0.667 LW
N
0 -4 M
0 4 L
-4 0 M
4 0 L
-2.828 -2.828 M
2.828 2.828 L
-2.828 2.828 M
2.828 -2.828 L
S
GR
GS
[0.75 0 0 0.75 281.91133 50.2762] CT
1 1 0 RC
10.0 ML
0.667 LW
N
0 -4 M
0 4 L
-4 0 M
4 0 L
-2.828 -2.828 M
2.828 2.828 L
-2.828 2.828 M
2.828 -2.828 L
S
GR
GS
[0.75 0 0 0.75 243.49878 49.05264] CT
1 1 0 RC
10.0 ML
0.667 LW
N
0 -4 M
0 4 L
-4 0 M
4 0 L
-2.828 -2.828 M
2.828 2.828 L
-2.828 2.828 M
2.828 -2.828 L
S
GR
GS
[0.75 0 0 0.75 288.79555 89.65771] CT
1 1 0 RC
10.0 ML
0.667 LW
N
0 -4 M
0 4 L
-4 0 M
4 0 L
-2.828 -2.828 M
2.828 2.828 L
-2.828 2.828 M
2.828 -2.828 L
S
GR
GS
[0.75 0 0 0.75 120.32975 212.15213] CT
1 1 0 RC
10.0 ML
0.667 LW
N
0 -4 M
0 4 L
-4 0 M
4 0 L
-2.828 -2.828 M
2.828 2.828 L
-2.828 2.828 M
2.828 -2.828 L
S
GR
GS
[0.75 0 0 0.75 337.9503 104.14483] CT
1 1 0 RC
10.0 ML
0.667 LW
N
0 -4 M
0 4 L
-4 0 M
4 0 L
-2.828 -2.828 M
2.828 2.828 L
-2.828 2.828 M
2.828 -2.828 L
S
GR
GS
[0.75 0 0 0.75 305.23872 244.53996] CT
1 1 0 RC
10.0 ML
0.667 LW
N
0 -4 M
0 4 L
-4 0 M
4 0 L
-2.828 -2.828 M
2.828 2.828 L
-2.828 2.828 M
2.828 -2.828 L
S
GR
GS
[0.75 0 0 0.75 104.40169 246.63652] CT
1 1 0 RC
10.0 ML
0.667 LW
N
0 -4 M
0 4 L
-4 0 M
4 0 L
-2.828 -2.828 M
2.828 2.828 L
-2.828 2.828 M
2.828 -2.828 L
S
GR
GS
[0.75 0 0 0.75 208.99331 229.67203] CT
1 1 0 RC
10.0 ML
0.667 LW
N
0 -4 M
0 4 L
-4 0 M
4 0 L
-2.828 -2.828 M
2.828 2.828 L
-2.828 2.828 M
2.828 -2.828 L
S
GR
GS
[0.75 0 0 0.75 173.61847 241.04109] CT
1 1 0 RC
10.0 ML
0.667 LW
N
0 -4 M
0 4 L
-4 0 M
4 0 L
-2.828 -2.828 M
2.828 2.828 L
-2.828 2.828 M
2.828 -2.828 L
S
GR
GS
[0.75 0 0 0.75 250.27148 130.47027] CT
1 1 0 RC
10.0 ML
0.667 LW
N
0 -4 M
0 4 L
-4 0 M
4 0 L
-2.828 -2.828 M
2.828 2.828 L
-2.828 2.828 M
2.828 -2.828 L
S
GR
GS
[0.75 0 0 0.75 149.61868 259.2561] CT
1 1 0 RC
10.0 ML
0.667 LW
N
0 -4 M
0 4 L
-4 0 M
4 0 L
-2.828 -2.828 M
2.828 2.828 L
-2.828 2.828 M
2.828 -2.828 L
S
GR
GS
[0.75 0 0 0.75 237.60635 70.74833] CT
1 1 0 RC
10.0 ML
0.667 LW
N
0 -4 M
0 4 L
-4 0 M
4 0 L
-2.828 -2.828 M
2.828 2.828 L
-2.828 2.828 M
2.828 -2.828 L
S
GR
GS
[0.75 0 0 0.75 243.46353 95.77229] CT
1 1 0 RC
10.0 ML
0.667 LW
N
0 -4 M
0 4 L
-4 0 M
4 0 L
-2.828 -2.828 M
2.828 2.828 L
-2.828 2.828 M
2.828 -2.828 L
S
GR
GS
[0.75 0 0 0.75 242.63869 44.69029] CT
1 1 0 RC
10.0 ML
0.667 LW
N
0 -4 M
0 4 L
-4 0 M
4 0 L
-2.828 -2.828 M
2.828 2.828 L
-2.828 2.828 M
2.828 -2.828 L
S
GR
GS
[0.75 0 0 0.75 204.51974 153.7278] CT
1 1 0 RC
10.0 ML
0.667 LW
N
0 -4 M
0 4 L
-4 0 M
4 0 L
-2.828 -2.828 M
2.828 2.828 L
-2.828 2.828 M
2.828 -2.828 L
S
GR
GS
[0.75 0 0 0.75 100.57019 112.89234] CT
1 1 0 RC
10.0 ML
0.667 LW
N
0 -4 M
0 4 L
-4 0 M
4 0 L
-2.828 -2.828 M
2.828 2.828 L
-2.828 2.828 M
2.828 -2.828 L
S
GR
GS
[0.75 0 0 0.75 220.97708 53.68436] CT
1 1 0 RC
10.0 ML
0.667 LW
N
0 -4 M
0 4 L
-4 0 M
4 0 L
-2.828 -2.828 M
2.828 2.828 L
-2.828 2.828 M
2.828 -2.828 L
S
GR
GS
[0.75 0 0 0.75 194.2765 142.17846] CT
1 1 0 RC
10.0 ML
0.667 LW
N
0 -4 M
0 4 L
-4 0 M
4 0 L
-2.828 -2.828 M
2.828 2.828 L
-2.828 2.828 M
2.828 -2.828 L
S
GR
GS
[0.75 0 0 0.75 278.5275 250.52634] CT
N
f-1057828618
f
GR
GS
[0.75 0 0 0.75 282.40716 161.97395] CT
N
f-1057828618
f
GR
GS
[0.75 0 0 0.75 189.59469 164.23738] CT
N
f-1057828618
f
GR
GS
[0.75 0 0 0.75 199.70606 139.00343] CT
N
f-1057828618
f
GR
GS
[0.75 0 0 0.75 332.35792 75.00743] CT
N
f-1057828618
f
GR
GS
[0.75 0 0 0.75 235.86626 101.32281] CT
N
f-1057828618
f
GR
GS
[0.75 0 0 0.75 305.52196 58.18661] CT
N
f-1057828618
f
GR
GS
[0.75 0 0 0.75 161.20809 264.58429] CT
N
f-1057828618
f
GR
GS
[0.75 0 0 0.75 248.28777 222.42874] CT
N
f-1057828618
f
GR
GS
[0.75 0 0 0.75 239.73985 162.03275] CT
N
f-1057828618
f
GR
GS
[0.75 0 0 0.75 334.15093 36.46614] CT
N
f-1057828618
f
GR
GS
[0.75 0 0 0.75 113.27537 78.87314] CT
N
f-1057828618
f
GR
GS
[0.75 0 0 0.75 217.62556 163.98774] CT
N
f-1057828618
f
GR
GS
[0.75 0 0 0.75 222.93393 193.79965] CT
N
f-1057828618
f
GR
GS
[0.75 0 0 0.75 114.3484 262.84682] CT
N
f-1057828618
f
GR
GS
[0.75 0 0 0.75 319.35098 91.24126] CT
N
f-1057828618
f
GR
GS
[0.75 0 0 0.75 314.2473 150.16488] CT
N
f-1057828618
f
GR
GS
[0.75 0 0 0.75 202.14425 227.40113] CT
N
f-1057828618
f
GR
GS
[0.75 0 0 0.75 288.40709 170.19974] CT
N
f-1057828618
f
GR
GS
[0.75 0 0 0.75 129.02174 235.26274] CT
N
f-1057828618
f
GR
GS
[0.75 0 0 0.75 247.65662 88.52569] CT
N
f-1057828618
f
GR
GS
[0.75 0 0 0.75 157.25109 185.00994] CT
N
f-1057828618
f
GR
GS
[0.75 0 0 0.75 203.82216 40.67336] CT
N
f-1057828618
f
GR
GS
[0.75 0 0 0.75 304.08165 273.39841] CT
N
f-1057828618
f
GR
GS
[0.75 0 0 0.75 141.03746 69.05453] CT
N
f-1057828618
f
GR
GS
[0.75 0 0 0.75 168.13118 120.01317] CT
N
f-1057828618
f
GR
GS
[0.75 0 0 0.75 213.29539 142.12285] CT
N
f-1057828618
f
GR
GS
[0.75 0 0 0.75 176.67872 113.99356] CT
N
f-1057828618
f
GR
GS
[0.75 0 0 0.75 292.62625 94.83435] CT
N
f-1057828618
f
GR
GS
[0.75 0 0 0.75 340.19632 253.93865] CT
N
f-1057828618
f
GR
GS
[0.75 0 0 0.75 131.68528 56.84298] CT
N
f-1057828618
f
GR
GS
[0.75 0 0 0.75 151.27496 274.10577] CT
N
f-1057828618
f
GR
GS
[0.75 0 0 0.75 268.40117 203.6472] CT
N
f-1057828618
f
GR
GS
[0.75 0 0 0.75 186.15731 232.43761] CT
N
f-1057828618
f
GR
GS
[0.75 0 0 0.75 336.72734 44.5805] CT
N
f-1057828618
f
GR
GS
[0.75 0 0 0.75 336.37514 260.56018] CT
N
f-1057828618
f
GR
GS
[0.75 0 0 0.75 253.66754 131.46455] CT
N
f-1057828618
f
GR
GS
[0.75 0 0 0.75 308.13371 117.35525] CT
N
f-1057828618
f
GR
GS
[0.75 0 0 0.75 192.80491 113.80186] CT
N
f-1057828618
f
GR
GS
[0.75 0 0 0.75 250.70581 60.10286] CT
N
f-1057828618
f
GR
GS
[0.75 0 0 0.75 339.62977 263.63784] CT
N
f-1057828618
f
GR
GS
[0.75 0 0 0.75 232.46995 72.12535] CT
N
f-1057828618
f
GR
GS
[0.75 0 0 0.75 326.63127 144.59547] CT
N
f-1057828618
f
GR
GS
[0.75 0 0 0.75 272.95844 102.95867] CT
N
f-1057828618
f
GR
GS
[0.75 0 0 0.75 213.48264 224.26014] CT
N
f-1057828618
f
GR
GS
[0.75 0 0 0.75 252.4929 140.98182] CT
N
f-1057828618
f
GR
GS
[0.75 0 0 0.75 315.06477 100.90243] CT
N
f-1057828618
f
GR
GS
[0.75 0 0 0.75 141.6747 36.99445] CT
N
f-1057828618
f
GR
GS
[0.75 0 0 0.75 191.16462 165.83324] CT
N
f-1057828618
f
GR
GS
[0.75 0 0 0.75 341.37618 256.22672] CT
N
f-1057828618
f
GR
GS
[0.75 0 0 0.75 192.92276 263.28857] CT
N
f-1057828618
f
GR
GS
[0.75 0 0 0.75 257.48277 119.29345] CT
N
f-1057828618
f
GR
GS
[0.75 0 0 0.75 318.51579 77.32934] CT
N
f-1057828618
f
GR
GS
[0.75 0 0 0.75 342.18322 103.75383] CT
N
f-1057828618
f
GR
GS
[0.75 0 0 0.75 256.04984 190.80964] CT
N
f-1057828618
f
GR
GS
[0.75 0 0 0.75 118.9469 39.41519] CT
N
f-1057828618
f
GR
GS
[0.75 0 0 0.75 100.744 146.79327] CT
N
f-1057828618
f
GR
GS
[0.75 0 0 0.75 247.22253 37.65427] CT
N
f-1057828618
f
GR
GS
[0.75 0 0 0.75 234.39965 259.19721] CT
N
f-1057828618
f
GR
GS
[0.75 0 0 0.75 333.77243 225.61246] CT
N
f-1057828618
f
GR
GS
[0.75 0 0 0.75 279.44257 82.65293] CT
N
f-1057828618
f
GR
GS
[0.75 0 0 0.75 258.40386 47.62758] CT
N
f-1057828618
f
GR
GS
[0.75 0 0 0.75 223.36775 80.7595] CT
N
f-1057828618
f
GR
GS
[0.75 0 0 0.75 157.0675 203.33725] CT
N
f-1057828618
f
GR
GS
[0.75 0 0 0.75 333.77975 239.50237] CT
N
f-1057828618
f
GR
GS
[0.75 0 0 0.75 227.619 64.30899] CT
N
f-1057828618
f
GR
GS
[0.75 0 0 0.75 99.27315 80.17961] CT
N
f-1057828618
f
GR
GS
[0.75 0 0 0.75 266.91062 209.55469] CT
N
f-1057828618
f
GR
GS
[0.75 0 0 0.75 222.46239 220.38265] CT
N
f-1057828618
f
GR
GS
[0.75 0 0 0.75 106.51189 196.92188] CT
N
f-1057828618
f
GR
GS
[0.75 0 0 0.75 315.66868 68.9272] CT
N
f-1057828618
f
GR
GS
[0.75 0 0 0.75 174.7634 70.78459] CT
N
f-1057828618
f
GR
GS
[0.75 0 0 0.75 149.46817 134.08475] CT
N
f-1057828618
f
GR
GS
[0.75 0 0 0.75 120.33428 133.79612] CT
N
f-1057828618
f
GR
GS
[0.75 0 0 0.75 169.91091 205.73232] CT
N
f-1057828618
f
GR
GS
[0.75 0 0 0.75 149.14881 101.75483] CT
N
f-1057828618
f
GR
GS
[0.75 0 0 0.75 255.75634 77.30949] CT
N
f-1057828618
f
GR
GS
[0.75 0 0 0.75 108.30634 166.57652] CT
N
f-1057828618
f
GR
GS
[0.75 0 0 0.75 160.97807 165.41206] CT
N
f-1057828618
f
GR
GS
[0.75 0 0 0.75 162.58607 160.51746] CT
N
f-1057828618
f
GR
GS
[0.75 0 0 0.75 313.15933 207.48889] CT
N
f-1057828618
f
GR
GS
[0.75 0 0 0.75 203.48845 107.73458] CT
N
f-1057828618
f
GR
GS
[0.75 0 0 0.75 281.91133 50.2762] CT
N
f-1057828618
f
GR
GS
[0.75 0 0 0.75 243.49878 49.05264] CT
N
f-1057828618
f
GR
GS
[0.75 0 0 0.75 288.79555 89.65771] CT
N
f-1057828618
f
GR
GS
[0.75 0 0 0.75 120.32975 212.15213] CT
N
f-1057828618
f
GR
GS
[0.75 0 0 0.75 337.9503 104.14483] CT
N
f-1057828618
f
GR
GS
[0.75 0 0 0.75 305.23872 244.53996] CT
N
f-1057828618
f
GR
GS
[0.75 0 0 0.75 104.40169 246.63652] CT
N
f-1057828618
f
GR
GS
[0.75 0 0 0.75 208.99331 229.67203] CT
N
f-1057828618
f
GR
GS
[0.75 0 0 0.75 173.61847 241.04109] CT
N
f-1057828618
f
GR
GS
[0.75 0 0 0.75 250.27148 130.47027] CT
N
f-1057828618
f
GR
GS
[0.75 0 0 0.75 149.61868 259.2561] CT
N
f-1057828618
f
GR
GS
[0.75 0 0 0.75 237.60635 70.74833] CT
N
f-1057828618
f
GR
GS
[0.75 0 0 0.75 243.46353 95.77229] CT
N
f-1057828618
f
GR
GS
[0.75 0 0 0.75 242.63869 44.69029] CT
N
f-1057828618
f
GR
GS
[0.75 0 0 0.75 204.51974 153.7278] CT
N
f-1057828618
f
GR
GS
[0.75 0 0 0.75 100.57019 112.89234] CT
N
f-1057828618
f
GR
GS
[0.75 0 0 0.75 220.97708 53.68436] CT
N
f-1057828618
f
GR
GS
[0.75 0 0 0.75 194.2765 142.17846] CT
N
f-1057828618
f
GR
%%Trailer
%%Pages: 1
%%EOF
